Found a 51 line (247 tokens) duplication in the following files: 
Starting at line 59 of /home/danysk/Dropbox/Didattica/2016-17/Programmazione ad Oggetti/Progetti/oop16-conti-jacopo-noia-carlo-riccardi-alessandro-dmf/src/view/brand/BrandGraphic.java
Starting at line 59 of /home/danysk/Dropbox/Didattica/2016-17/Programmazione ad Oggetti/Progetti/oop16-conti-jacopo-noia-carlo-riccardi-alessandro-dmf/src/view/category/CategoryGraphic.java

        super.getBtnBrand().setStyle("-fx-background-image: url('/images/clothes.png');");

        dialogItem = new DialogPreviewIO();
        genObjFx = new GeneralObjectFx();

        /* Container (PANE) */
        vBox = new VBox();

        /* Title_______________ */
        final Text titlePane = new Text(NAMEOFSCREEN);
        final StackPane titleStackPnl = new StackPane();
        titlePane.getStyleClass().add("main-title");
        titleStackPnl.getStyleClass().add("pnl-main-title");
        titleStackPnl.getChildren().add(titlePane);
        /* ____________________ */

        /* Category_______________ */
        final Text txtCategory = new Text("Select the category");
        final VBox vboxSelectCat = new VBox();
        chbCategory = genObjFx.setChoiseBoxCategoryBanner(txtCategory, vboxSelectCat);
        /* ____________________ */

        vBox.getChildren().add(titleStackPnl);
        vBox.getChildren().add(vboxSelectCat);

        VBox.setVgrow(scrollPnl, Priority.ALWAYS);
        /* ___________________________________________ */
        scrollPnl.setFitToWidth(true);
        // scrollPnl.setFitToHeight(true);
        scrollPnl.setContent(vBox);

        chbCategory.getSelectionModel().selectedIndexProperty().addListener(new ChangeListener<Number>() {
            @Override
            public void changed(final ObservableValue<? extends Number> observableValue, final Number number,
                    final Number number2) {
                resetAllComponent();
                showItemOfCategory(chbCategory.getItems().get((Integer) number2));
            }
        });
    }

    @Override
    public void showNowContent() {
        final Category switchCategory = chbCategory.getValue();
        super.setupColorButtonsBH();
        returnTopPane();
        resetAllComponent();
        if (switchCategory != null) {
            showItemOfCategory(chbCategory.getValue());
        }
    }
=====================================================================
Found a 43 line (203 tokens) duplication in the following files: 
Starting at line 246 of /home/danysk/Dropbox/Didattica/2016-17/Programmazione ad Oggetti/Progetti/oop16-conti-jacopo-noia-carlo-riccardi-alessandro-dmf/src/model/classes/AIOutfit.java
Starting at line 141 of /home/danysk/Dropbox/Didattica/2016-17/Programmazione ad Oggetti/Progetti/oop16-conti-jacopo-noia-carlo-riccardi-alessandro-dmf/src/model/classes/UserOutfit.java

        final AIOutfit other = (AIOutfit) obj;
        if (date == null) {
            if (other.date != null) {
                return false;
            }
        } else if (!date.equals(other.date)) {
            return false;
        }
        if (id == null) {
            if (other.id != null) {
                return false;
            }
        } else if (!id.equals(other.id)) {
            return false;
        }
        if (name == null) {
            if (other.name != null) {
                return false;
            }
        } else if (!name.equals(other.name)) {
            return false;
        }
        if (outfit == null) {
            if (other.outfit != null) {
                return false;
            }
        } else if (!outfit.equals(other.outfit)) {
            return false;
        }
        if (type != other.type) {
            return false;
        }
        if (wornCount == null) {
            if (other.wornCount != null) {
                return false;
            }
        } else if (!wornCount.equals(other.wornCount)) {
            return false;
        }
        return true;
    }

}
=====================================================================
Found a 25 line (200 tokens) duplication in the following files: 
Starting at line 219 of /home/danysk/Dropbox/Didattica/2016-17/Programmazione ad Oggetti/Progetti/oop16-conti-jacopo-noia-carlo-riccardi-alessandro-dmf/src/model/classes/AIOutfit.java
Starting at line 114 of /home/danysk/Dropbox/Didattica/2016-17/Programmazione ad Oggetti/Progetti/oop16-conti-jacopo-noia-carlo-riccardi-alessandro-dmf/src/model/classes/UserOutfit.java

        return "AIOutfit [id=" + id + ", name=" + name + ", wornCount=" + wornCount + ", outfit=" + outfit + "]";
    }

    @Override
    public int hashCode() {
        final int prime = 31;
        int result = 1;
        result = prime * result + ((date == null) ? 0 : date.hashCode());
        result = prime * result + ((id == null) ? 0 : id.hashCode());
        result = prime * result + ((name == null) ? 0 : name.hashCode());
        result = prime * result + ((outfit == null) ? 0 : outfit.hashCode());
        result = prime * result + ((type == null) ? 0 : type.hashCode());
        result = prime * result + ((wornCount == null) ? 0 : wornCount.hashCode());
        return result;
    }

    @Override
    public boolean equals(final Object obj) {
        if (this == obj) {
            return true;
        }
        if (obj == null) {
            return false;
        }
        if (!(obj instanceof AIOutfit)) {
=====================================================================
Found a 40 line (197 tokens) duplication in the following files: 
Starting at line 551 of /home/danysk/Dropbox/Didattica/2016-17/Programmazione ad Oggetti/Progetti/oop16-conti-jacopo-noia-carlo-riccardi-alessandro-dmf/src/view/general/DialogPreviewIO.java
Starting at line 104 of /home/danysk/Dropbox/Didattica/2016-17/Programmazione ad Oggetti/Progetti/oop16-conti-jacopo-noia-carlo-riccardi-alessandro-dmf/src/view/outfits/NewOutfitGraphic.java

        genObjFx.addTextFieldToVBox("Name", txfName, dialogVbox);
        /* ____________________ */

        for (int i = 0; i < allCat.length - 1; i++) {
            final String nameCat = allCat[i].name();
            final BorderPane brpCat;
            final StackPane skpNameCat;
            final Label lblCat;
            final GridPane gridCat;
            final Button btnAddItem;
            final StackPane skpBtnAddItem;
            final Label lblItemInfo;
            final StackPane skpLblInfoItem;
            final int indexCat;

            /* GRID creation */
            brpCat = new BorderPane();
            skpNameCat = new StackPane();
            lblCat = new Label(nameCat);
            gridCat = new GridPane();
            genObjFx.setBorderPaneExposition(false, brpCat, skpNameCat, lblCat, gridCat);

            /* BUTTON add item */
            btnAddItem = new Button("Add item");
            skpBtnAddItem = new StackPane();
            genObjFx.setSmallBtnStkP(btnAddItem, skpBtnAddItem);

            /* LABEL No item selected */
            lblItemInfo = new Label("No item selected");
            skpLblInfoItem = new StackPane();
            lblItemInfo.getStyleClass().add("text-info-item");
            skpLblInfoItem.getChildren().add(lblItemInfo);

            gridCat.add(skpBtnAddItem, 0, 0);
            gridCat.add(skpLblInfoItem, 1, 0);

            /******* ACTION *******/
            indexCat = i;
            btnAddItem.setOnAction((event) -> {
                createDialogSelectItem(Category.valueOf(allCat[indexCat].name()), dialogVbox, outfitItems,
=====================================================================
Found a 28 line (158 tokens) duplication in the following files: 
Starting at line 124 of /home/danysk/Dropbox/Didattica/2016-17/Programmazione ad Oggetti/Progetti/oop16-conti-jacopo-noia-carlo-riccardi-alessandro-dmf/src/view/general/DialogPreviewIO.java
Starting at line 509 of /home/danysk/Dropbox/Didattica/2016-17/Programmazione ad Oggetti/Progetti/oop16-conti-jacopo-noia-carlo-riccardi-alessandro-dmf/src/view/general/DialogPreviewIO.java

        stkVbox.getStyleClass().add("pane-user");

        /* Title_______________ */
        final Text titlePane = new Text(dressName);
        final StackPane titleStackPnl = new StackPane();
        titlePane.getStyleClass().add("main-title");
        titleStackPnl.getChildren().add(titlePane);
        dialogVbox.getChildren().add(titleStackPnl);
        /* ____________________ */

        /* Description_________ */
        final Label lblDescr = new Label(getStringWorn(wornCount));
        final StackPane stkDescription = new StackPane();
        lblDescr.getStyleClass().add("text-description");
        lblDescr.setWrapText(true);
        lblDescr.setTextAlignment(TextAlignment.JUSTIFY);
        stkDescription.getChildren().add(lblDescr);
        dialogVbox.getChildren().add(stkDescription);
        /* ____________________ */

        /* Button Wear_______________ */
        final Button btnWear = new Button("Weared recently");
        final StackPane stkWear = new StackPane();
        // stkWear.getStyleClass().add(PNL_OTHER_ADD);
        genObjFx.setSmallBtnStkP(btnWear, stkWear);
        dialogVbox.getChildren().add(stkWear);
        btnWear.setOnAction(event -> {
            if (wornCount == dress.getWornCount()) {
=====================================================================
Found a 21 line (154 tokens) duplication in the following files: 
Starting at line 119 of /home/danysk/Dropbox/Didattica/2016-17/Programmazione ad Oggetti/Progetti/oop16-conti-jacopo-noia-carlo-riccardi-alessandro-dmf/src/view/add/AddGraphic.java
Starting at line 178 of /home/danysk/Dropbox/Didattica/2016-17/Programmazione ad Oggetti/Progetti/oop16-conti-jacopo-noia-carlo-riccardi-alessandro-dmf/src/view/general/DialogPreviewIO.java

        chbCategory = genObjFx.setChoiseBoxCategory(txtChoiseBox, pnlCategoryTitle, pnlCategoryChb);
        /* ____________________ */

        /* Image_______________ */
        final Text txtImage = new Text("Drag and drop an image ");
        final Button btnRemoveImage = new Button("Remove image");
        imvItem = new ImageView();
        imageStackPnl = new StackPane();
        final StackPane pnlImageTitle = new StackPane();
        final StackPane pnlImage = new StackPane();
        final StackPane pnlButtonRemoveImage = new StackPane();
        imageStackPnl.setPrefSize(PREFSIZE_IMG, PREFSIZE_IMG);
        imageStackPnl.getStyleClass().add("pnl-image");
        btnRemoveImage.getStyleClass().add("btn-normal");
        btnRemoveImage.getStyleClass().add("btn-small");
        txtImage.getStyleClass().add(ADD_TITLE_INFO_STYLE);
        pnlImageTitle.getStyleClass().add(ADD_CONT_TITLE_INFO_STYLE);
        pnlImage.getStyleClass().add("pnl-cont-image");
        pnlImageTitle.getChildren().add(txtImage);
        pnlImage.getChildren().add(imageStackPnl);
        pnlButtonRemoveImage.getChildren().add(btnRemoveImage);
=====================================================================
Found a 41 line (148 tokens) duplication in the following files: 
Starting at line 339 of /home/danysk/Dropbox/Didattica/2016-17/Programmazione ad Oggetti/Progetti/oop16-conti-jacopo-noia-carlo-riccardi-alessandro-dmf/src/view/general/GeneralObjectFx.java
Starting at line 445 of /home/danysk/Dropbox/Didattica/2016-17/Programmazione ad Oggetti/Progetti/oop16-conti-jacopo-noia-carlo-riccardi-alessandro-dmf/src/view/general/GeneralObjectFx.java

        imageView.setPreserveRatio(true);

        // snapshot the rounded image.
        final SnapshotParameters parameters = new SnapshotParameters();
        parameters.setFill(Color.TRANSPARENT);
        final WritableImage image = imageView.snapshot(parameters, null);

        // remove the rounding clip so that our effect can show through.
        imageView.setClip(null);

        // apply a shadow effect.
        imageView.setEffect(new DropShadow(SHADOW_HEIGHT, Color.BLACK));

        // store the rounded image in the imageView.
        imageView.setImage(image);

        stpImageView.getChildren().add(imageView);
        brpItem.setCenter(stpImageView);

        /* Button see BUTTOM________________ */
        final StackPane stpBtnAction = new StackPane();
        btnAction.getStyleClass().add(BTN_NORMAL);
        btnAction.getStyleClass().add(BTN_SMALL);
        stpBtnAction.getChildren().add(btnAction);
        brpItem.setBottom(stpBtnAction);

        StackPane.setMargin(btnAction, NOUP_INSET);

        GridPane.setMargin(brpItem, STANDARD_INSET);

        gridExpo.add(brpItem, rowIndex, columnIndex);

    }

    /**
     * Add a TextField to a VBox.
     * @param name of the field
     * @param txf the specific TextField
     * @param vBox the VBox where it will put the TextField
     */
    public void addTextFieldToVBox(final String name, final TextField txf, final VBox vBox) {
=====================================================================
Found a 15 line (134 tokens) duplication in the following files: 
Starting at line 113 of /home/danysk/Dropbox/Didattica/2016-17/Programmazione ad Oggetti/Progetti/oop16-conti-jacopo-noia-carlo-riccardi-alessandro-dmf/src/view/brand/BrandGraphic.java
Starting at line 278 of /home/danysk/Dropbox/Didattica/2016-17/Programmazione ad Oggetti/Progetti/oop16-conti-jacopo-noia-carlo-riccardi-alessandro-dmf/src/view/outfits/NewOutfitGraphic.java

        final int nBrand = brandsName.size();

        for (int i = 0; i < nBrand; i++) {

            final BorderPane brpBrand = new BorderPane();
            final StackPane skpNameBrand = new StackPane();
            final Label lblBrand = new Label(brandsName.get(i));
            final GridPane gridBrand = new GridPane();
            genObjFx.setBorderPaneExposition(false, brpBrand, skpNameBrand, lblBrand, gridBrand);

            /* Specific_Item__________________ */
            final List<Dress> dressItem = super.getController().dress().getAllBrandDress(cat, brandsName.get(i));
            for (int j = 0; j < dressItem.size(); j++) {
                final Dress dress = dressItem.get(j);
                final Button btnSelect = new Button("See more");
=====================================================================
Found a 42 line (132 tokens) duplication in the following files: 
Starting at line 369 of /home/danysk/Dropbox/Didattica/2016-17/Programmazione ad Oggetti/Progetti/oop16-conti-jacopo-noia-carlo-riccardi-alessandro-dmf/src/view/add/AddGraphic.java
Starting at line 807 of /home/danysk/Dropbox/Didattica/2016-17/Programmazione ad Oggetti/Progetti/oop16-conti-jacopo-noia-carlo-riccardi-alessandro-dmf/src/view/general/DialogPreviewIO.java

    }

    /**
     * Add an image in a ImageView and then in a StackPane.
     * 
     * @param img
     *            is the image that the user dropped on
     * @param imageView
     *            is the container of the image
     * @param pane
     *            is the container of the imageView
     */
    public void addImage(final Image img, final ImageView imageView, final StackPane pane) {
        imageView.setImage(img);
        imageView.setFitWidth(PREFSIZE_IMG_OFIMAGE);
        imageView.setPreserveRatio(true);

        if (!pane.getChildren().contains(imageView)) {
            pane.getChildren().add(imageView);
        }
        pane.setPrefHeight(imageView.getFitHeight());
        pane.setStyle("-fx-border-color: transparent; -fx-border-width: 0; -fx-background-color: transparent;");
    }

    /**
     * Permit to remove an image from an ImageView, if it doesn't contain an
     * image the method don't do nothing.
     * 
     * @param imageView
     *            is the ImageView
     * @param pane
     *            is the StackPane
     */
    public final void removeTheImage(final ImageView imageView, final StackPane pane) {
        if (imageView.getImage() != null) {
            imageView.setImage(null);
            pane.setStyle("-fx-background-color: #333333; -fx-border-color: #8A8A8A; -fx-border-radius: 4.0;"
                    + " -fx-background-radius: 4px;");
            pane.setPrefHeight(PREFSIZE_IMG);
            pane.setPrefWidth(PREFSIZE_IMG);
        }
    }
=====================================================================
Found a 26 line (119 tokens) duplication in the following files: 
Starting at line 59 of /home/danysk/Dropbox/Didattica/2016-17/Programmazione ad Oggetti/Progetti/oop16-conti-jacopo-noia-carlo-riccardi-alessandro-dmf/src/view/brand/BrandGraphic.java
Starting at line 59 of /home/danysk/Dropbox/Didattica/2016-17/Programmazione ad Oggetti/Progetti/oop16-conti-jacopo-noia-carlo-riccardi-alessandro-dmf/src/view/category/CategoryGraphic.java
Starting at line 58 of /home/danysk/Dropbox/Didattica/2016-17/Programmazione ad Oggetti/Progetti/oop16-conti-jacopo-noia-carlo-riccardi-alessandro-dmf/src/view/size/SizeGraphic.java

        super.getBtnBrand().setStyle("-fx-background-image: url('/images/clothes.png');");

        dialogItem = new DialogPreviewIO();
        genObjFx = new GeneralObjectFx();

        /* Container (PANE) */
        vBox = new VBox();

        /* Title_______________ */
        final Text titlePane = new Text(NAMEOFSCREEN);
        final StackPane titleStackPnl = new StackPane();
        titlePane.getStyleClass().add("main-title");
        titleStackPnl.getStyleClass().add("pnl-main-title");
        titleStackPnl.getChildren().add(titlePane);
        /* ____________________ */

        /* Category_______________ */
        final Text txtCategory = new Text("Select the category");
        final VBox vboxSelectCat = new VBox();
        chbCategory = genObjFx.setChoiseBoxCategoryBanner(txtCategory, vboxSelectCat);
        /* ____________________ */

        vBox.getChildren().add(titleStackPnl);
        vBox.getChildren().add(vboxSelectCat);

        VBox.setVgrow(scrollPnl, Priority.ALWAYS);
=====================================================================
Found a 22 line (111 tokens) duplication in the following files: 
Starting at line 779 of /home/danysk/Dropbox/Didattica/2016-17/Programmazione ad Oggetti/Progetti/oop16-conti-jacopo-noia-carlo-riccardi-alessandro-dmf/src/view/general/DialogPreviewIO.java
Starting at line 349 of /home/danysk/Dropbox/Didattica/2016-17/Programmazione ad Oggetti/Progetti/oop16-conti-jacopo-noia-carlo-riccardi-alessandro-dmf/src/view/outfits/NewOutfitGraphic.java

                    outfitItems.remove(categoryToRemove);

                    /* Remove the Button and the Label */
                    while (!gdpCat.getChildren().isEmpty()) {
                        gdpCat.getChildren().remove(0);
                    }

                    /* BUTTON add item */
                    btnAddItem = new Button("Add item");
                    skpBtnAdd = new StackPane();
                    genObjFx.setSmallBtnStkP(btnAddItem, skpBtnAdd);

                    /* LABEL No item selected */
                    lblItemInfo = new Label("No item selected");
                    skpLblInfoItem = new StackPane();
                    genObjFx.setStandardLblStkP(lblItemInfo, skpLblInfoItem);

                    gdpCat.add(skpBtnAdd, 0, 0);
                    gdpCat.add(skpLblInfoItem, 1, 0);

                    btnAddItem.setOnAction(e -> {
                        createDialogSelectItem(Category.valueOf(categoryToRemove.name()), vBoxOfCategory, outfitItems,
=====================================================================
Found a 18 line (107 tokens) duplication in the following files: 
Starting at line 124 of /home/danysk/Dropbox/Didattica/2016-17/Programmazione ad Oggetti/Progetti/oop16-conti-jacopo-noia-carlo-riccardi-alessandro-dmf/src/view/brand/BrandGraphic.java
Starting at line 132 of /home/danysk/Dropbox/Didattica/2016-17/Programmazione ad Oggetti/Progetti/oop16-conti-jacopo-noia-carlo-riccardi-alessandro-dmf/src/view/size/SizeGraphic.java

            final List<Dress> dressItem = super.getController().dress().getAllBrandDress(cat, brandsName.get(i));
            for (int j = 0; j < dressItem.size(); j++) {
                final Dress dress = dressItem.get(j);
                final Button btnSelect = new Button("See more");

                genObjFx.setItemInsideGrid(false, j, dress, btnSelect, gridBrand);

                btnSelect.setOnAction(event -> {
                    dialogItem.createDialogDress(super.getSceneSetting().getMainStage(), dress, super.getController(),
                            this);
                    this.showNowContent();
                });
            }

            vBox.getChildren().add(brpBrand);
        }

    }
=====================================================================
Found a 35 line (105 tokens) duplication in the following files: 
Starting at line 43 of /home/danysk/Dropbox/Didattica/2016-17/Programmazione ad Oggetti/Progetti/oop16-conti-jacopo-noia-carlo-riccardi-alessandro-dmf/src/model/classes/AIOutfit.java
Starting at line 41 of /home/danysk/Dropbox/Didattica/2016-17/Programmazione ad Oggetti/Progetti/oop16-conti-jacopo-noia-carlo-riccardi-alessandro-dmf/src/model/classes/UserOutfit.java

        this.date = LocalDate.now();
    }

    @Override
    public UUID getId() {
        return this.id;
    }

    @Override
    public List<UUID> getOutfit() {
        return this.outfit;
    }

    @Override
    public String getName() {
        return this.name;
    }

    @Override
    public Integer getWornCount() {
        return this.wornCount;
    }

    @Override
    public Outfit getOutfitType() {
        return this.type;
    }

    @Override
    public LocalDate getDate() {
        return this.date;
    }

    @Override
    public Outfits createOutfit(final List<UUID> dressList) {
=====================================================================
Found a 20 line (105 tokens) duplication in the following files: 
Starting at line 84 of /home/danysk/Dropbox/Didattica/2016-17/Programmazione ad Oggetti/Progetti/oop16-conti-jacopo-noia-carlo-riccardi-alessandro-dmf/src/view/brand/BrandGraphic.java
Starting at line 84 of /home/danysk/Dropbox/Didattica/2016-17/Programmazione ad Oggetti/Progetti/oop16-conti-jacopo-noia-carlo-riccardi-alessandro-dmf/src/view/category/CategoryGraphic.java
Starting at line 83 of /home/danysk/Dropbox/Didattica/2016-17/Programmazione ad Oggetti/Progetti/oop16-conti-jacopo-noia-carlo-riccardi-alessandro-dmf/src/view/size/SizeGraphic.java

        VBox.setVgrow(scrollPnl, Priority.ALWAYS);
        /* ___________________________________________ */
        scrollPnl.setFitToWidth(true);
        // scrollPnl.setFitToHeight(true);
        scrollPnl.setContent(vBox);

        chbCategory.getSelectionModel().selectedIndexProperty().addListener(new ChangeListener<Number>() {
            @Override
            public void changed(final ObservableValue<? extends Number> observableValue, final Number number,
                    final Number number2) {
                resetAllComponent();
                showItemOfCategory(chbCategory.getItems().get((Integer) number2));
            }
        });
    }

    @Override
    public void showNowContent() {
        final Category switchCategory = chbCategory.getValue();
        super.setupColorButtonsBH();
=====================================================================
Found a 18 line (102 tokens) duplication in the following files: 
Starting at line 124 of /home/danysk/Dropbox/Didattica/2016-17/Programmazione ad Oggetti/Progetti/oop16-conti-jacopo-noia-carlo-riccardi-alessandro-dmf/src/view/brand/BrandGraphic.java
Starting at line 132 of /home/danysk/Dropbox/Didattica/2016-17/Programmazione ad Oggetti/Progetti/oop16-conti-jacopo-noia-carlo-riccardi-alessandro-dmf/src/view/category/CategoryGraphic.java
Starting at line 132 of /home/danysk/Dropbox/Didattica/2016-17/Programmazione ad Oggetti/Progetti/oop16-conti-jacopo-noia-carlo-riccardi-alessandro-dmf/src/view/size/SizeGraphic.java

            final List<Dress> dressItem = super.getController().dress().getAllBrandDress(cat, brandsName.get(i));
            for (int j = 0; j < dressItem.size(); j++) {
                final Dress dress = dressItem.get(j);
                final Button btnSelect = new Button("See more");

                genObjFx.setItemInsideGrid(false, j, dress, btnSelect, gridBrand);

                btnSelect.setOnAction(event -> {
                    dialogItem.createDialogDress(super.getSceneSetting().getMainStage(), dress, super.getController(),
                            this);
                    this.showNowContent();
                });
            }

            vBox.getChildren().add(brpBrand);
        }

    }
=====================================================================
Found a 17 line (100 tokens) duplication in the following files: 
Starting at line 108 of /home/danysk/Dropbox/Didattica/2016-17/Programmazione ad Oggetti/Progetti/oop16-conti-jacopo-noia-carlo-riccardi-alessandro-dmf/src/view/general/DialogPreviewIO.java
Starting at line 479 of /home/danysk/Dropbox/Didattica/2016-17/Programmazione ad Oggetti/Progetti/oop16-conti-jacopo-noia-carlo-riccardi-alessandro-dmf/src/view/general/DialogPreviewIO.java

        final int wornCount = dress.getWornCount();

        dialog.setMinWidth(WIDTH_DIALOG);
        dialog.setMinHeight(HEIGHT_DIALOG);
        dialog.initModality(Modality.APPLICATION_MODAL);
        dialog.initOwner(owner);
        dialog.setTitle(dressName);

        scrollPnlDialog = new ScrollPane();
        scrollPnlDialog.getStyleClass().add("srp-padding-left");
        stkVbox = new StackPane();
        VBox.setVgrow(scrollPnlDialog, Priority.ALWAYS);
        scrollPnlDialog.setFitToWidth(true);

        dialogVbox = new VBox();
        stkVbox.getStyleClass().add("main-pane-user");
        stkVbox.getStyleClass().add("pane-user");
=====================================================================
Found a 14 line (99 tokens) duplication in the following files: 
Starting at line 276 of /home/danysk/Dropbox/Didattica/2016-17/Programmazione ad Oggetti/Progetti/oop16-conti-jacopo-noia-carlo-riccardi-alessandro-dmf/src/view/add/AddGraphic.java
Starting at line 354 of /home/danysk/Dropbox/Didattica/2016-17/Programmazione ad Oggetti/Progetti/oop16-conti-jacopo-noia-carlo-riccardi-alessandro-dmf/src/view/general/DialogPreviewIO.java

            }

            if (!messageNecessaryField.equals(OPSSS) && !messageNumericField.equals(REMEMBER)) {
                messageFinal = messageNecessaryField + " " + messageNumericField;
            } else if (!messageNecessaryField.equals(OPSSS) && messageNumericField.equals(REMEMBER)) {
                messageFinal = messageNecessaryField;
            } else if (messageNecessaryField.equals(OPSSS) && !messageNumericField.equals(REMEMBER)) {
                messageFinal = messageNumericField;
            }

            if (!messageFinal.equals("")) {
                alertEr.setContentText(messageFinal);
                alertEr.showAndWait();
            } else {
=====================================================================
Found a 15 line (98 tokens) duplication in the following files: 
Starting at line 124 of /home/danysk/Dropbox/Didattica/2016-17/Programmazione ad Oggetti/Progetti/oop16-conti-jacopo-noia-carlo-riccardi-alessandro-dmf/src/view/brand/BrandGraphic.java
Starting at line 132 of /home/danysk/Dropbox/Didattica/2016-17/Programmazione ad Oggetti/Progetti/oop16-conti-jacopo-noia-carlo-riccardi-alessandro-dmf/src/view/category/CategoryGraphic.java
Starting at line 109 of /home/danysk/Dropbox/Didattica/2016-17/Programmazione ad Oggetti/Progetti/oop16-conti-jacopo-noia-carlo-riccardi-alessandro-dmf/src/view/favorite/FavoriteGraphic.java
Starting at line 132 of /home/danysk/Dropbox/Didattica/2016-17/Programmazione ad Oggetti/Progetti/oop16-conti-jacopo-noia-carlo-riccardi-alessandro-dmf/src/view/size/SizeGraphic.java

            final List<Dress> dressItem = super.getController().dress().getAllBrandDress(cat, brandsName.get(i));
            for (int j = 0; j < dressItem.size(); j++) {
                final Dress dress = dressItem.get(j);
                final Button btnSelect = new Button("See more");

                genObjFx.setItemInsideGrid(false, j, dress, btnSelect, gridBrand);

                btnSelect.setOnAction(event -> {
                    dialogItem.createDialogDress(super.getSceneSetting().getMainStage(), dress, super.getController(),
                            this);
                    this.showNowContent();
                });
            }

            vBox.getChildren().add(brpBrand);
=====================================================================
Found a 20 line (90 tokens) duplication in the following files: 
Starting at line 727 of /home/danysk/Dropbox/Didattica/2016-17/Programmazione ad Oggetti/Progetti/oop16-conti-jacopo-noia-carlo-riccardi-alessandro-dmf/src/view/general/DialogPreviewIO.java
Starting at line 299 of /home/danysk/Dropbox/Didattica/2016-17/Programmazione ad Oggetti/Progetti/oop16-conti-jacopo-noia-carlo-riccardi-alessandro-dmf/src/view/outfits/NewOutfitGraphic.java

                    addSpecItem(cat, dress, outfitItems, vBoxOfCategory, owner, controller);
                    dialog.close();
                });
            }
            dialogVbox.getChildren().add(brpBrand);
        }

        scrollPnlDialog.setContent(dialogVbox);
        stkVbox.getChildren().add(scrollPnlDialog);

        dialogScene = new Scene(stkVbox, WIDTH_DIALOG, HEIGHT_DIALOG);
        dialogScene.getStylesheets().add(css1);
        dialogScene.getStylesheets().add(css2);
        dialog.setScene(dialogScene);

        dialog.show();

    }

    private void addSpecItem(final Category cat, final Dress dress, final Map<Category, Dress> outfitItems,
=====================================================================
Found a 14 line (89 tokens) duplication in the following files: 
Starting at line 624 of /home/danysk/Dropbox/Didattica/2016-17/Programmazione ad Oggetti/Progetti/oop16-conti-jacopo-noia-carlo-riccardi-alessandro-dmf/src/view/general/DialogPreviewIO.java
Starting at line 175 of /home/danysk/Dropbox/Didattica/2016-17/Programmazione ad Oggetti/Progetti/oop16-conti-jacopo-noia-carlo-riccardi-alessandro-dmf/src/view/outfits/NewOutfitGraphic.java

            } else if (outfitItems.isEmpty()) {
                final Alert alertEr = new Alert(AlertType.ERROR);
                alertEr.setTitle("Error Dialog");
                alertEr.setHeaderText("There's somthing wrong!");
                alertEr.setContentText("Select at least one item");
                alertEr.show();
            } else if (nameOutfit.equals("")) {
                final Alert alertEr = new Alert(AlertType.ERROR);
                alertEr.setTitle("Error Dialog");
                alertEr.setHeaderText("There's somthing wrong!");
                alertEr.setContentText("Write the outfit name");
                alertEr.show();
            }
        });
=====================================================================
Found a 15 line (88 tokens) duplication in the following files: 
Starting at line 704 of /home/danysk/Dropbox/Didattica/2016-17/Programmazione ad Oggetti/Progetti/oop16-conti-jacopo-noia-carlo-riccardi-alessandro-dmf/src/view/general/DialogPreviewIO.java
Starting at line 277 of /home/danysk/Dropbox/Didattica/2016-17/Programmazione ad Oggetti/Progetti/oop16-conti-jacopo-noia-carlo-riccardi-alessandro-dmf/src/view/outfits/NewOutfitGraphic.java

        brandsName = controller.dress().getAllBrandName(cat);
        nBrand = brandsName.size();

        // java.util.Collections.sort(brandsName);

        for (int i = 0; i < nBrand; i++) {

            final BorderPane brpBrand = new BorderPane();
            final StackPane skpNameBrand = new StackPane();
            final Label lblBrand = new Label(brandsName.get(i));
            final GridPane gridBrand = new GridPane();
            genObjFx.setBorderPaneExposition(false, brpBrand, skpNameBrand, lblBrand, gridBrand);

            /* Specific_Item__________________ */
            final List<Dress> dressItem = controller.dress().getAllBrandDress(cat, brandsName.get(i));
=====================================================================
Found a 15 line (87 tokens) duplication in the following files: 
Starting at line 171 of /home/danysk/Dropbox/Didattica/2016-17/Programmazione ad Oggetti/Progetti/oop16-conti-jacopo-noia-carlo-riccardi-alessandro-dmf/src/view/add/AddGraphic.java
Starting at line 228 of /home/danysk/Dropbox/Didattica/2016-17/Programmazione ad Oggetti/Progetti/oop16-conti-jacopo-noia-carlo-riccardi-alessandro-dmf/src/view/general/DialogPreviewIO.java

        txfName = new TextField();
        final StackPane pnlNameTitle = new StackPane();
        final StackPane pnlNameTxf = new StackPane();

        txtName.getStyleClass().add(ADD_TITLE_INFO_STYLE);
        pnlNameTitle.getStyleClass().add(ADD_CONT_TITLE_INFO_STYLE);
        txfName.getStyleClass().add(TEXT_FIELD_ADD);
        txfName.setMaxWidth(PREFSIZE_TEXT);
        pnlNameTitle.getChildren().add(txtName);
        pnlNameTxf.getChildren().add(txfName);
        /* ____________________ */

        /* Brand_______________ */
        final Text txtBrand = new Text("Brand");
        txfBrand = new TextField();
=====================================================================
Found a 14 line (87 tokens) duplication in the following files: 
Starting at line 213 of /home/danysk/Dropbox/Didattica/2016-17/Programmazione ad Oggetti/Progetti/oop16-conti-jacopo-noia-carlo-riccardi-alessandro-dmf/src/view/add/AddGraphic.java
Starting at line 273 of /home/danysk/Dropbox/Didattica/2016-17/Programmazione ad Oggetti/Progetti/oop16-conti-jacopo-noia-carlo-riccardi-alessandro-dmf/src/view/general/DialogPreviewIO.java

        txfPrice = new TextField();
        final StackPane pnlPriceTitle = new StackPane();
        final StackPane pnlPriceTxf = new StackPane();
        txtPrice.getStyleClass().add(ADD_TITLE_INFO_STYLE);
        pnlPriceTitle.getStyleClass().add(ADD_CONT_TITLE_INFO_STYLE);
        txfPrice.getStyleClass().add(TEXT_FIELD_ADD);
        txfPrice.setMaxWidth(PREFSIZE_TEXT);
        pnlPriceTitle.getChildren().add(txtPrice);
        pnlPriceTxf.getChildren().add(txfPrice);
        /* ____________________ */

        /* Date_______________ */
        final Text txtDate = new Text("Purchase date");
        dtpDate = new DatePicker();
=====================================================================
Found a 21 line (83 tokens) duplication in the following files: 
Starting at line 213 of /home/danysk/Dropbox/Didattica/2016-17/Programmazione ad Oggetti/Progetti/oop16-conti-jacopo-noia-carlo-riccardi-alessandro-dmf/src/view/general/GeneralObjectFx.java
Starting at line 441 of /home/danysk/Dropbox/Didattica/2016-17/Programmazione ad Oggetti/Progetti/oop16-conti-jacopo-noia-carlo-riccardi-alessandro-dmf/src/view/general/GeneralObjectFx.java

        }

        imageView.setFitHeight(HEIGHT_IMAGE);
        imageView.setFitWidth(WIDTH_IMAGE);
        imageView.setPreserveRatio(true);

        // snapshot the rounded image.
        final SnapshotParameters parameters = new SnapshotParameters();
        parameters.setFill(Color.TRANSPARENT);
        final WritableImage image = imageView.snapshot(parameters, null);

        // remove the rounding clip so that our effect can show through.
        imageView.setClip(null);

        // apply a shadow effect.
        imageView.setEffect(new DropShadow(SHADOW_HEIGHT, Color.BLACK));

        // store the rounded image in the imageView.
        imageView.setImage(image);

        stpImageView.getChildren().add(imageView);
=====================================================================
Found a 12 line (79 tokens) duplication in the following files: 
Starting at line 113 of /home/danysk/Dropbox/Didattica/2016-17/Programmazione ad Oggetti/Progetti/oop16-conti-jacopo-noia-carlo-riccardi-alessandro-dmf/src/view/brand/BrandGraphic.java
Starting at line 705 of /home/danysk/Dropbox/Didattica/2016-17/Programmazione ad Oggetti/Progetti/oop16-conti-jacopo-noia-carlo-riccardi-alessandro-dmf/src/view/general/DialogPreviewIO.java

        final int nBrand = brandsName.size();

        for (int i = 0; i < nBrand; i++) {

            final BorderPane brpBrand = new BorderPane();
            final StackPane skpNameBrand = new StackPane();
            final Label lblBrand = new Label(brandsName.get(i));
            final GridPane gridBrand = new GridPane();
            genObjFx.setBorderPaneExposition(false, brpBrand, skpNameBrand, lblBrand, gridBrand);

            /* Specific_Item__________________ */
            final List<Dress> dressItem = super.getController().dress().getAllBrandDress(cat, brandsName.get(i));
=====================================================================
Found a 22 line (79 tokens) duplication in the following files: 
Starting at line 104 of /home/danysk/Dropbox/Didattica/2016-17/Programmazione ad Oggetti/Progetti/oop16-conti-jacopo-noia-carlo-riccardi-alessandro-dmf/src/view/category/CategoryGraphic.java
Starting at line 103 of /home/danysk/Dropbox/Didattica/2016-17/Programmazione ad Oggetti/Progetti/oop16-conti-jacopo-noia-carlo-riccardi-alessandro-dmf/src/view/size/SizeGraphic.java

        returnTopPane();
        resetAllComponent();
        if (switchCategory != null) {
            showItemOfCategory(chbCategory.getValue());
        }
    }

    @Override
    public void resetAllComponent() {
        final int nComponent = vBox.getChildren().size();
        for (int i = 2; i < nComponent; i++) {
            vBox.getChildren().remove(2);
        }
    }

    /**
     * @param cat
     *            the category that i wont to show.
     */
    private void showItemOfCategory(final Category cat) {

        final BorderPane brpBrand = new BorderPane();
=====================================================================
Found a 11 line (77 tokens) duplication in the following files: 
Starting at line 268 of /home/danysk/Dropbox/Didattica/2016-17/Programmazione ad Oggetti/Progetti/oop16-conti-jacopo-noia-carlo-riccardi-alessandro-dmf/src/view/add/AddGraphic.java
Starting at line 354 of /home/danysk/Dropbox/Didattica/2016-17/Programmazione ad Oggetti/Progetti/oop16-conti-jacopo-noia-carlo-riccardi-alessandro-dmf/src/view/general/DialogPreviewIO.java

            }

            if (!messageNecessaryField.equals(OPSSS) && !messageNumericField.equals(REMEMBER)) {
                messageFinal = messageNecessaryField + " " + messageNumericField;
            } else if (!messageNecessaryField.equals(OPSSS) && messageNumericField.equals(REMEMBER)) {
                messageFinal = messageNecessaryField;
            } else if (messageNecessaryField.equals(OPSSS) && !messageNumericField.equals(REMEMBER)) {
                messageFinal = messageNumericField;
            }

            if (!messageNecessaryField.equals(OPSSS) && !messageNumericField.equals(REMEMBER)) {
=====================================================================
Found a 22 line (76 tokens) duplication in the following files: 
Starting at line 79 of /home/danysk/Dropbox/Didattica/2016-17/Programmazione ad Oggetti/Progetti/oop16-conti-jacopo-noia-carlo-riccardi-alessandro-dmf/src/model/classes/AIOutfit.java
Starting at line 81 of /home/danysk/Dropbox/Didattica/2016-17/Programmazione ad Oggetti/Progetti/oop16-conti-jacopo-noia-carlo-riccardi-alessandro-dmf/src/model/classes/UserOutfit.java

    }

    @Override
    public Status setName(final String name) {
        this.name = name;
        return Status.CHANGE_SUCCESFULL;
    }

    @Override
    public Status setWornCount() {
        this.wornCount++;
        return Status.CHANGE_SUCCESFULL;
    }

    @Override
    public Status setDate(final LocalDate date) {
        this.date = date;
        return Status.CHANGE_SUCCESFULL;
    }

    @Override
    public Outfits createOutfit(final Map<Category, Categories> categoryMap) {
=====================================================================
Found a 15 line (76 tokens) duplication in the following files: 
Starting at line 432 of /home/danysk/Dropbox/Didattica/2016-17/Programmazione ad Oggetti/Progetti/oop16-conti-jacopo-noia-carlo-riccardi-alessandro-dmf/src/view/general/DialogPreviewIO.java
Starting at line 495 of /home/danysk/Dropbox/Didattica/2016-17/Programmazione ad Oggetti/Progetti/oop16-conti-jacopo-noia-carlo-riccardi-alessandro-dmf/src/view/general/DialogPreviewIO.java

        dialogVbox.getChildren().add(stkCancel);
        /* ___________________________________________ */
        VBox.setVgrow(scrollPnlDialog, Priority.ALWAYS);
        /* ___________________________________________ */
        scrollPnlDialog.setFitToWidth(true);
        // scrollPnl.setFitToHeight(true);
        scrollPnlDialog.setContent(dialogVbox);

        scrollPnlDialog.setContent(dialogVbox);
        stkVbox.getChildren().add(scrollPnlDialog);

        dialogScene = new Scene(stkVbox, WIDTH_DIALOG, HEIGHT_DIALOG);
        dialogScene.getStylesheets().add(css1);
        dialogScene.getStylesheets().add(css2);
        dialog.setScene(dialogScene);
=====================================================================
Found a 6 line (75 tokens) duplication in the following files: 
Starting at line 208 of /home/danysk/Dropbox/Didattica/2016-17/Programmazione ad Oggetti/Progetti/oop16-conti-jacopo-noia-carlo-riccardi-alessandro-dmf/src/view/outfits/NewOutfitGraphic.java
Starting at line 319 of /home/danysk/Dropbox/Didattica/2016-17/Programmazione ad Oggetti/Progetti/oop16-conti-jacopo-noia-carlo-riccardi-alessandro-dmf/src/view/outfits/NewOutfitGraphic.java

        final Category[] allCat = Category.values();
        int indexOfFirstCategory = 0;
        for (int i = 0; i < vBox.getChildren().size() && !(vBox.getChildren().get(i) instanceof BorderPane); i++) {
            indexOfFirstCategory = i + 1;
        }
        for (int i = 0; i < allCat.length - 1; i++) {
=====================================================================
Found a 15 line (74 tokens) duplication in the following files: 
Starting at line 185 of /home/danysk/Dropbox/Didattica/2016-17/Programmazione ad Oggetti/Progetti/oop16-conti-jacopo-noia-carlo-riccardi-alessandro-dmf/src/view/add/AddGraphic.java
Starting at line 241 of /home/danysk/Dropbox/Didattica/2016-17/Programmazione ad Oggetti/Progetti/oop16-conti-jacopo-noia-carlo-riccardi-alessandro-dmf/src/view/general/DialogPreviewIO.java

        txfBrand = new TextField();
        final StackPane pnlBrandTitle = new StackPane();
        final StackPane pnlBrandTxf = new StackPane();
        txtBrand.getStyleClass().add(ADD_TITLE_INFO_STYLE);
        pnlBrandTitle.getStyleClass().add(ADD_CONT_TITLE_INFO_STYLE);

        txfBrand.getStyleClass().add(TEXT_FIELD_ADD);
        txfBrand.setMaxWidth(PREFSIZE_TEXT);

        pnlBrandTitle.getChildren().add(txtBrand);
        pnlBrandTxf.getChildren().add(txfBrand);
        /* ____________________ */

        /* Size_______________ */
        final Text txtSize = new Text("Size");
=====================================================================
Found a 13 line (74 tokens) duplication in the following files: 
Starting at line 200 of /home/danysk/Dropbox/Didattica/2016-17/Programmazione ad Oggetti/Progetti/oop16-conti-jacopo-noia-carlo-riccardi-alessandro-dmf/src/view/add/AddGraphic.java
Starting at line 258 of /home/danysk/Dropbox/Didattica/2016-17/Programmazione ad Oggetti/Progetti/oop16-conti-jacopo-noia-carlo-riccardi-alessandro-dmf/src/view/general/DialogPreviewIO.java

        txfSize = new TextField();
        final StackPane pnlSizeTitle = new StackPane();
        final StackPane pnlSizeTxf = new StackPane();
        txtSize.getStyleClass().add(ADD_TITLE_INFO_STYLE);
        pnlSizeTitle.getStyleClass().add(ADD_CONT_TITLE_INFO_STYLE);
        txfSize.getStyleClass().add(TEXT_FIELD_ADD);
        txfSize.setMaxWidth(PREFSIZE_TEXT);
        pnlSizeTitle.getChildren().add(txtSize);
        pnlSizeTxf.getChildren().add(txfSize);
        /* ____________________ */

        /* Price_______________ */
        final Text txtPrice = new Text("Price");
=====================================================================
Found a 8 line (73 tokens) duplication in the following files: 
Starting at line 718 of /home/danysk/Dropbox/Didattica/2016-17/Programmazione ad Oggetti/Progetti/oop16-conti-jacopo-noia-carlo-riccardi-alessandro-dmf/src/view/general/DialogPreviewIO.java
Starting at line 291 of /home/danysk/Dropbox/Didattica/2016-17/Programmazione ad Oggetti/Progetti/oop16-conti-jacopo-noia-carlo-riccardi-alessandro-dmf/src/view/outfits/NewOutfitGraphic.java

            final List<Dress> dressItem = controller.dress().getAllBrandDress(cat, brandsName.get(i));
            for (int j = 0; j < dressItem.size(); j++) {
                final Dress dress = dressItem.get(j);
                final Button btnSelect = new Button("Select");

                genObjFx.setItemInsideGrid(false, j, dress, btnSelect, gridBrand);

                btnSelect.setOnAction(event -> {
=====================================================================
Found a 10 line (70 tokens) duplication in the following files: 
Starting at line 98 of /home/danysk/Dropbox/Didattica/2016-17/Programmazione ad Oggetti/Progetti/oop16-conti-jacopo-noia-carlo-riccardi-alessandro-dmf/src/view/general/DialogPreviewIO.java
Starting at line 469 of /home/danysk/Dropbox/Didattica/2016-17/Programmazione ad Oggetti/Progetti/oop16-conti-jacopo-noia-carlo-riccardi-alessandro-dmf/src/view/general/DialogPreviewIO.java

        final URL url1 = this.getClass().getResource("/view/mainStyle.css");
        final URL url2 = this.getClass().getResource("/view/add/Add.css");
        final String css1 = url1.toExternalForm();
        final String css2 = url2.toExternalForm();
        final Stage dialog = new Stage();
        final ScrollPane scrollPnlDialog;
        final StackPane stkVbox;
        final VBox dialogVbox;
        final Scene dialogScene;
        final String dressName = dress.getName();
=====================================================================
Found a 17 line (70 tokens) duplication in the following files: 
Starting at line 217 of /home/danysk/Dropbox/Didattica/2016-17/Programmazione ad Oggetti/Progetti/oop16-conti-jacopo-noia-carlo-riccardi-alessandro-dmf/src/view/general/GeneralObjectFx.java
Starting at line 339 of /home/danysk/Dropbox/Didattica/2016-17/Programmazione ad Oggetti/Progetti/oop16-conti-jacopo-noia-carlo-riccardi-alessandro-dmf/src/view/general/GeneralObjectFx.java

        imageView.setPreserveRatio(true);

        // snapshot the rounded image.
        final SnapshotParameters parameters = new SnapshotParameters();
        parameters.setFill(Color.TRANSPARENT);
        final WritableImage image = imageView.snapshot(parameters, null);

        // remove the rounding clip so that our effect can show through.
        imageView.setClip(null);

        // apply a shadow effect.
        imageView.setEffect(new DropShadow(SHADOW_HEIGHT, Color.BLACK));

        // store the rounded image in the imageView.
        imageView.setImage(image);

        stpImageView.getChildren().add(imageView);
=====================================================================
Found a 12 line (69 tokens) duplication in the following files: 
Starting at line 226 of /home/danysk/Dropbox/Didattica/2016-17/Programmazione ad Oggetti/Progetti/oop16-conti-jacopo-noia-carlo-riccardi-alessandro-dmf/src/view/add/AddGraphic.java
Starting at line 286 of /home/danysk/Dropbox/Didattica/2016-17/Programmazione ad Oggetti/Progetti/oop16-conti-jacopo-noia-carlo-riccardi-alessandro-dmf/src/view/general/DialogPreviewIO.java

        dtpDate = new DatePicker();
        final StackPane pnlDateTitle = new StackPane();
        final StackPane pnlDateTxf = new StackPane();
        txtDate.getStyleClass().add(ADD_TITLE_INFO_STYLE);
        pnlDateTitle.getStyleClass().add(ADD_CONT_TITLE_INFO_STYLE);
        dtpDate.getStyleClass().add("date-picker");
        pnlDateTitle.getChildren().add(txtDate);
        pnlDateTxf.getChildren().add(dtpDate);
        /* ____________________ */

        /* Some information_______________ */
        final Text txtInfo = new Text("Information");
=====================================================================
Found a 12 line (69 tokens) duplication in the following files: 
Starting at line 238 of /home/danysk/Dropbox/Didattica/2016-17/Programmazione ad Oggetti/Progetti/oop16-conti-jacopo-noia-carlo-riccardi-alessandro-dmf/src/view/add/AddGraphic.java
Starting at line 311 of /home/danysk/Dropbox/Didattica/2016-17/Programmazione ad Oggetti/Progetti/oop16-conti-jacopo-noia-carlo-riccardi-alessandro-dmf/src/view/general/DialogPreviewIO.java

        txaInfo = new TextArea();
        final StackPane pnlInfoTitle = new StackPane();
        final StackPane pnlInfoTxa = new StackPane();
        txtInfo.getStyleClass().add(ADD_TITLE_INFO_STYLE);
        pnlInfoTitle.getStyleClass().add(ADD_CONT_TITLE_INFO_STYLE);
        txaInfo.getStyleClass().add("text-field-add-info");
        pnlInfoTitle.getChildren().add(txtInfo);
        pnlInfoTxa.getChildren().add(txaInfo);
        /* ____________________ */

        /* Button_______________ */
        final Button btnAdd = new Button("Add Item");
=====================================================================
Found a 16 line (69 tokens) duplication in the following files: 
Starting at line 762 of /home/danysk/Dropbox/Didattica/2016-17/Programmazione ad Oggetti/Progetti/oop16-conti-jacopo-noia-carlo-riccardi-alessandro-dmf/src/view/general/DialogPreviewIO.java
Starting at line 332 of /home/danysk/Dropbox/Didattica/2016-17/Programmazione ad Oggetti/Progetti/oop16-conti-jacopo-noia-carlo-riccardi-alessandro-dmf/src/view/outfits/NewOutfitGraphic.java

                while (!gdpCat.getChildren().isEmpty()) {
                    gdpCat.getChildren().remove(0);
                }

                /* BUTTON Remove item */
                btnRemoveItem = new Button("Remove it");

                genObjFx.setItemOfOutfit(dress, btnRemoveItem, gdpCat);

                /******* ACTION *******/
                final Category categoryToRemove = allCat[i];
                btnRemoveItem.setOnAction(event -> {
                    final Button btnAddItem;
                    final StackPane skpBtnAdd;
                    final Label lblItemInfo;
                    final StackPane skpLblInfoItem;
=====================================================================
Found a 13 line (67 tokens) duplication in the following files: 
Starting at line 692 of /home/danysk/Dropbox/Didattica/2016-17/Programmazione ad Oggetti/Progetti/oop16-conti-jacopo-noia-carlo-riccardi-alessandro-dmf/src/view/general/DialogPreviewIO.java
Starting at line 265 of /home/danysk/Dropbox/Didattica/2016-17/Programmazione ad Oggetti/Progetti/oop16-conti-jacopo-noia-carlo-riccardi-alessandro-dmf/src/view/outfits/NewOutfitGraphic.java

        dialog.initOwner(owner);
        dialog.setTitle(cat.name());

        scrollPnlDialog = new ScrollPane();
        stkVbox = new StackPane();
        VBox.setVgrow(scrollPnlDialog, Priority.ALWAYS);
        scrollPnlDialog.setFitToWidth(true);

        dialogVbox = new VBox();
        stkVbox.getStyleClass().add("main-pane-user");
        stkVbox.getStyleClass().add("pane-user");

        brandsName = controller.dress().getAllBrandName(cat);
=====================================================================
Found a 6 line (67 tokens) duplication in the following files: 
Starting at line 752 of /home/danysk/Dropbox/Didattica/2016-17/Programmazione ad Oggetti/Progetti/oop16-conti-jacopo-noia-carlo-riccardi-alessandro-dmf/src/view/general/DialogPreviewIO.java
Starting at line 321 of /home/danysk/Dropbox/Didattica/2016-17/Programmazione ad Oggetti/Progetti/oop16-conti-jacopo-noia-carlo-riccardi-alessandro-dmf/src/view/outfits/NewOutfitGraphic.java

                && !(vBoxOfCategory.getChildren().get(i) instanceof BorderPane); i++) {
            indexOfFirstCategory = i + 1;
        }
        for (int i = 0; i < allCat.length - 1; i++) {
            if (allCat[i].name().equals(cat.name())) {
                final BorderPane brpCat = (BorderPane) vBoxOfCategory.getChildren().get(i + indexOfFirstCategory);
=====================================================================
Found a 14 line (66 tokens) duplication in the following files: 
Starting at line 230 of /home/danysk/Dropbox/Didattica/2016-17/Programmazione ad Oggetti/Progetti/oop16-conti-jacopo-noia-carlo-riccardi-alessandro-dmf/src/model/classes/AIOutfit.java
Starting at line 195 of /home/danysk/Dropbox/Didattica/2016-17/Programmazione ad Oggetti/Progetti/oop16-conti-jacopo-noia-carlo-riccardi-alessandro-dmf/src/model/classes/DressImpl.java
Starting at line 125 of /home/danysk/Dropbox/Didattica/2016-17/Programmazione ad Oggetti/Progetti/oop16-conti-jacopo-noia-carlo-riccardi-alessandro-dmf/src/model/classes/UserOutfit.java

        result = prime * result + ((type == null) ? 0 : type.hashCode());
        result = prime * result + ((wornCount == null) ? 0 : wornCount.hashCode());
        return result;
    }

    @Override
    public boolean equals(final Object obj) {
        if (this == obj) {
            return true;
        }
        if (obj == null) {
            return false;
        }
        if (!(obj instanceof AIOutfit)) {
=====================================================================
Found a 12 line (66 tokens) duplication in the following files: 
Starting at line 259 of /home/danysk/Dropbox/Didattica/2016-17/Programmazione ad Oggetti/Progetti/oop16-conti-jacopo-noia-carlo-riccardi-alessandro-dmf/src/view/add/AddGraphic.java
Starting at line 332 of /home/danysk/Dropbox/Didattica/2016-17/Programmazione ad Oggetti/Progetti/oop16-conti-jacopo-noia-carlo-riccardi-alessandro-dmf/src/view/general/DialogPreviewIO.java

            final String messageNumericField = REMEMBER;
            String messageFinal = "";
            // Check if all the necessary field are filled
            if (chbCategory.getValue() == null && imvItem.getImage() == null) {
                messageNecessaryField += "you need to select a category and a photo of the item.";
            } else if (chbCategory.getValue() == null) {
                messageNecessaryField += "you need to select a category.";
            } else if (imvItem.getImage() == null) {
                messageNecessaryField += "you need insert a photo.";
            }

            if (!messageNecessaryField.equals(OPSSS) && !messageNumericField.equals(REMEMBER)) {
=====================================================================
Found a 14 line (66 tokens) duplication in the following files: 
Starting at line 59 of /home/danysk/Dropbox/Didattica/2016-17/Programmazione ad Oggetti/Progetti/oop16-conti-jacopo-noia-carlo-riccardi-alessandro-dmf/src/view/brand/BrandGraphic.java
Starting at line 59 of /home/danysk/Dropbox/Didattica/2016-17/Programmazione ad Oggetti/Progetti/oop16-conti-jacopo-noia-carlo-riccardi-alessandro-dmf/src/view/category/CategoryGraphic.java
Starting at line 55 of /home/danysk/Dropbox/Didattica/2016-17/Programmazione ad Oggetti/Progetti/oop16-conti-jacopo-noia-carlo-riccardi-alessandro-dmf/src/view/favorite/FavoriteGraphic.java
Starting at line 58 of /home/danysk/Dropbox/Didattica/2016-17/Programmazione ad Oggetti/Progetti/oop16-conti-jacopo-noia-carlo-riccardi-alessandro-dmf/src/view/size/SizeGraphic.java

        super.getBtnBrand().setStyle("-fx-background-image: url('/images/clothes.png');");

        dialogItem = new DialogPreviewIO();
        genObjFx = new GeneralObjectFx();

        /* Container (PANE) */
        vBox = new VBox();

        /* Title_______________ */
        final Text titlePane = new Text(NAMEOFSCREEN);
        final StackPane titleStackPnl = new StackPane();
        titlePane.getStyleClass().add("main-title");
        titleStackPnl.getStyleClass().add("pnl-main-title");
        titleStackPnl.getChildren().add(titlePane);
=====================================================================
Found a 9 line (64 tokens) duplication in the following files: 
Starting at line 98 of /home/danysk/Dropbox/Didattica/2016-17/Programmazione ad Oggetti/Progetti/oop16-conti-jacopo-noia-carlo-riccardi-alessandro-dmf/src/view/general/DialogPreviewIO.java
Starting at line 469 of /home/danysk/Dropbox/Didattica/2016-17/Programmazione ad Oggetti/Progetti/oop16-conti-jacopo-noia-carlo-riccardi-alessandro-dmf/src/view/general/DialogPreviewIO.java
Starting at line 250 of /home/danysk/Dropbox/Didattica/2016-17/Programmazione ad Oggetti/Progetti/oop16-conti-jacopo-noia-carlo-riccardi-alessandro-dmf/src/view/outfits/NewOutfitGraphic.java

        final URL url1 = this.getClass().getResource("/view/mainStyle.css");
        final URL url2 = this.getClass().getResource("/view/add/Add.css");
        final String css1 = url1.toExternalForm();
        final String css2 = url2.toExternalForm();
        final Stage dialog = new Stage();
        final ScrollPane scrollPnlDialog;
        final StackPane stkVbox;
        final VBox dialogVbox;
        final Scene dialogScene;
=====================================================================
Found a 11 line (59 tokens) duplication in the following files: 
Starting at line 440 of /home/danysk/Dropbox/Didattica/2016-17/Programmazione ad Oggetti/Progetti/oop16-conti-jacopo-noia-carlo-riccardi-alessandro-dmf/src/view/general/DialogPreviewIO.java
Starting at line 734 of /home/danysk/Dropbox/Didattica/2016-17/Programmazione ad Oggetti/Progetti/oop16-conti-jacopo-noia-carlo-riccardi-alessandro-dmf/src/view/general/DialogPreviewIO.java
Starting at line 306 of /home/danysk/Dropbox/Didattica/2016-17/Programmazione ad Oggetti/Progetti/oop16-conti-jacopo-noia-carlo-riccardi-alessandro-dmf/src/view/outfits/NewOutfitGraphic.java

        scrollPnlDialog.setContent(dialogVbox);
        stkVbox.getChildren().add(scrollPnlDialog);

        dialogScene = new Scene(stkVbox, WIDTH_DIALOG, HEIGHT_DIALOG);
        dialogScene.getStylesheets().add(css1);
        dialogScene.getStylesheets().add(css2);
        dialog.setScene(dialogScene);

        dialog.show();

    }
=====================================================================
Found a 7 line (57 tokens) duplication in the following files: 
Starting at line 676 of /home/danysk/Dropbox/Didattica/2016-17/Programmazione ad Oggetti/Progetti/oop16-conti-jacopo-noia-carlo-riccardi-alessandro-dmf/src/view/general/DialogPreviewIO.java
Starting at line 249 of /home/danysk/Dropbox/Didattica/2016-17/Programmazione ad Oggetti/Progetti/oop16-conti-jacopo-noia-carlo-riccardi-alessandro-dmf/src/view/outfits/NewOutfitGraphic.java

            final Map<Category, Dress> outfitItems, final Window owner, final Controller controller) {
        final URL url1 = this.getClass().getResource("/view/mainStyle.css");
        final URL url2 = this.getClass().getResource("/view/add/Add.css");
        final String css1 = url1.toExternalForm();
        final String css2 = url2.toExternalForm();
        final Stage dialog = new Stage();
        final Scene dialogScene;
=====================================================================
Found a 6 line (55 tokens) duplication in the following files: 
Starting at line 98 of /home/danysk/Dropbox/Didattica/2016-17/Programmazione ad Oggetti/Progetti/oop16-conti-jacopo-noia-carlo-riccardi-alessandro-dmf/src/view/general/DialogPreviewIO.java
Starting at line 469 of /home/danysk/Dropbox/Didattica/2016-17/Programmazione ad Oggetti/Progetti/oop16-conti-jacopo-noia-carlo-riccardi-alessandro-dmf/src/view/general/DialogPreviewIO.java
Starting at line 677 of /home/danysk/Dropbox/Didattica/2016-17/Programmazione ad Oggetti/Progetti/oop16-conti-jacopo-noia-carlo-riccardi-alessandro-dmf/src/view/general/DialogPreviewIO.java

        final URL url1 = this.getClass().getResource("/view/mainStyle.css");
        final URL url2 = this.getClass().getResource("/view/add/Add.css");
        final String css1 = url1.toExternalForm();
        final String css2 = url2.toExternalForm();
        final Stage dialog = new Stage();
        final ScrollPane scrollPnlDialog;
=====================================================================
Found a 7 line (53 tokens) duplication in the following files: 
Starting at line 503 of /home/danysk/Dropbox/Didattica/2016-17/Programmazione ad Oggetti/Progetti/oop16-conti-jacopo-noia-carlo-riccardi-alessandro-dmf/src/view/general/DialogPreviewIO.java
Starting at line 734 of /home/danysk/Dropbox/Didattica/2016-17/Programmazione ad Oggetti/Progetti/oop16-conti-jacopo-noia-carlo-riccardi-alessandro-dmf/src/view/general/DialogPreviewIO.java
Starting at line 306 of /home/danysk/Dropbox/Didattica/2016-17/Programmazione ad Oggetti/Progetti/oop16-conti-jacopo-noia-carlo-riccardi-alessandro-dmf/src/view/outfits/NewOutfitGraphic.java

        scrollPnlDialog.setContent(dialogVbox);
        stkVbox.getChildren().add(scrollPnlDialog);

        dialogScene = new Scene(stkVbox, WIDTH_DIALOG, HEIGHT_DIALOG);
        dialogScene.getStylesheets().add(css1);
        dialogScene.getStylesheets().add(css2);
        dialog.setScene(dialogScene);
=====================================================================
Found a 9 line (53 tokens) duplication in the following files: 
Starting at line 205 of /home/danysk/Dropbox/Didattica/2016-17/Programmazione ad Oggetti/Progetti/oop16-conti-jacopo-noia-carlo-riccardi-alessandro-dmf/src/view/general/GeneralObjectFx.java
Starting at line 322 of /home/danysk/Dropbox/Didattica/2016-17/Programmazione ad Oggetti/Progetti/oop16-conti-jacopo-noia-carlo-riccardi-alessandro-dmf/src/view/general/GeneralObjectFx.java

        GridPane.setMargin(stpImageView, STANDARD_INSET);
        imageView.getStyleClass().add("image-item");

        try {
            img = new Image(new FileInputStream(imgFile.getAbsolutePath()));
            imageView.setImage(img);
        } catch (FileNotFoundException e) {
            e.printStackTrace();
        }
=====================================================================
Found a 12 line (52 tokens) duplication in the following files: 
Starting at line 783 of /home/danysk/Dropbox/Didattica/2016-17/Programmazione ad Oggetti/Progetti/oop16-conti-jacopo-noia-carlo-riccardi-alessandro-dmf/src/view/general/DialogPreviewIO.java
Starting at line 224 of /home/danysk/Dropbox/Didattica/2016-17/Programmazione ad Oggetti/Progetti/oop16-conti-jacopo-noia-carlo-riccardi-alessandro-dmf/src/view/outfits/NewOutfitGraphic.java
Starting at line 353 of /home/danysk/Dropbox/Didattica/2016-17/Programmazione ad Oggetti/Progetti/oop16-conti-jacopo-noia-carlo-riccardi-alessandro-dmf/src/view/outfits/NewOutfitGraphic.java

                        gdpCat.getChildren().remove(0);
                    }

                    /* BUTTON add item */
                    btnAddItem = new Button("Add item");
                    skpBtnAdd = new StackPane();
                    genObjFx.setSmallBtnStkP(btnAddItem, skpBtnAdd);

                    /* LABEL No item selected */
                    lblItemInfo = new Label("No item selected");
                    skpLblInfoItem = new StackPane();
                    genObjFx.setStandardLblStkP(lblItemInfo, skpLblInfoItem);
=====================================================================
Found a 4 line (50 tokens) duplication in the following files: 
Starting at line 124 of /home/danysk/Dropbox/Didattica/2016-17/Programmazione ad Oggetti/Progetti/oop16-conti-jacopo-noia-carlo-riccardi-alessandro-dmf/src/view/brand/BrandGraphic.java
Starting at line 718 of /home/danysk/Dropbox/Didattica/2016-17/Programmazione ad Oggetti/Progetti/oop16-conti-jacopo-noia-carlo-riccardi-alessandro-dmf/src/view/general/DialogPreviewIO.java

            final List<Dress> dressItem = super.getController().dress().getAllBrandDress(cat, brandsName.get(i));
            for (int j = 0; j < dressItem.size(); j++) {
                final Dress dress = dressItem.get(j);
                final Button btnSelect = new Button("See more");
